simulation/qsim/clkgenremastered.msim.vcd
$comment
	File created using the following command:
		vcd file clkgenremastered.msim.vcd -direction
$end
$date
	Mon Apr 08 16:26:25 2024
$end
$version
	ModelSim Version 10.1d
$end
$timescale
	1ps
$end
$scope module clkgenremastered_vlg_vec_tst $end
$var reg 1 ! clk $end
$var reg 1 " rst_n $end
$var wire 1 # bps_start_o $end
$var wire 1 $ rs232_tx $end
$var wire 1 % ti $end
$var wire 1 & sampler $end
$scope module i1 $end
$var wire 1 ' gnd $end
$var wire 1 ( vcc $end
$var wire 1 ) unknown $end
$var tri1 1 * devclrn $end
$var tri1 1 + devpor $end
$var tri1 1 , devoe $end
$var wire 1 - clk~input_o $end
$var wire 1 . genpll|altpll_component|auto_generated|wire_pll1_fbout $end
$var wire 1 / genpll|altpll_component|auto_generated|wire_pll1_clk[0]~clkctrl_outclk $end
$var wire 1 0 cnt[0]~14_combout $end
$var wire 1 1 cnt[4]~23 $end
$var wire 1 2 cnt[5]~24_combout $end
$var wire 1 3 cnt[5]~25 $end
$var wire 1 4 cnt[6]~26_combout $end
$var wire 1 5 cnt[6]~27 $end
$var wire 1 6 cnt[7]~28_combout $end
$var wire 1 7 cnt[7]~29 $end
$var wire 1 8 cnt[8]~30_combout $end
$var wire 1 9 cnt[8]~31 $end
$var wire 1 : cnt[9]~32_combout $end
$var wire 1 ; cnt[9]~33 $end
$var wire 1 < cnt[10]~34_combout $end
$var wire 1 = cnt[10]~35 $end
$var wire 1 > cnt[11]~36_combout $end
$var wire 1 ? cnt[11]~37 $end
$var wire 1 @ cnt[12]~38_combout $end
$var wire 1 A cnt[12]~39 $end
$var wire 1 B cnt[13]~40_combout $end
$var wire 1 C LessThan0~0_combout $end
$var wire 1 D cnt[0]~15 $end
$var wire 1 E cnt[1]~16_combout $end
$var wire 1 F cnt[1]~17 $end
$var wire 1 G cnt[2]~18_combout $end
$var wire 1 H cnt[2]~19 $end
$var wire 1 I cnt[3]~20_combout $end
$var wire 1 J cnt[3]~21 $end
$var wire 1 K cnt[4]~22_combout $end
$var wire 1 L ti~1_combout $end
$var wire 1 M ti~2_combout $end
$var wire 1 N ti~0_combout $end
$var wire 1 O ti~3_combout $end
$var wire 1 P ti~reg0_q $end
$var wire 1 Q clk~inputclkctrl_outclk $end
$var wire 1 R count[0]~28_combout $end
$var wire 1 S count[6]~41 $end
$var wire 1 T count[7]~42_combout $end
$var wire 1 U count[7]~43 $end
$var wire 1 V count[8]~44_combout $end
$var wire 1 W count[8]~45 $end
$var wire 1 X count[9]~46_combout $end
$var wire 1 Y count[9]~47 $end
$var wire 1 Z count[10]~48_combout $end
$var wire 1 [ count[10]~49 $end
$var wire 1 \ count[11]~50_combout $end
$var wire 1 ] count[11]~51 $end
$var wire 1 ^ count[12]~52_combout $end
$var wire 1 _ count[12]~53 $end
$var wire 1 ` count[13]~54_combout $end
$var wire 1 a count[13]~55 $end
$var wire 1 b count[14]~56_combout $end
$var wire 1 c count[14]~57 $end
$var wire 1 d count[15]~58_combout $end
$var wire 1 e count[15]~59 $end
$var wire 1 f count[16]~60_combout $end
$var wire 1 g count[16]~61 $end
$var wire 1 h count[17]~62_combout $end
$var wire 1 i count[17]~63 $end
$var wire 1 j count[18]~64_combout $end
$var wire 1 k count[18]~65 $end
$var wire 1 l count[19]~66_combout $end
$var wire 1 m count[19]~67 $end
$var wire 1 n count[20]~68_combout $end
$var wire 1 o count[20]~69 $end
$var wire 1 p count[21]~70_combout $end
$var wire 1 q LessThan2~1_combout $end
$var wire 1 r LessThan2~2_combout $end
$var wire 1 s count[21]~71 $end
$var wire 1 t count[22]~72_combout $end
$var wire 1 u LessThan2~5_combout $end
$var wire 1 v count[22]~73 $end
$var wire 1 w count[23]~74_combout $end
$var wire 1 x count[23]~75 $end
$var wire 1 y count[24]~76_combout $end
$var wire 1 z count[24]~77 $end
$var wire 1 { count[25]~78_combout $end
$var wire 1 | count[25]~79 $end
$var wire 1 } count[26]~80_combout $end
$var wire 1 ~ count[26]~81 $end
$var wire 1 !! count[27]~82_combout $end
$var wire 1 "! LessThan2~3_combout $end
$var wire 1 #! LessThan2~4_combout $end
$var wire 1 $! LessThan2~6_combout $end
$var wire 1 %! LessThan2~7_combout $end
$var wire 1 &! LessThan2~0_combout $end
$var wire 1 '! LessThan2~8_combout $end
$var wire 1 (! LessThan2~9_combout $end
$var wire 1 )! count[0]~29 $end
$var wire 1 *! count[1]~30_combout $end
$var wire 1 +! count[1]~31 $end
$var wire 1 ,! count[2]~32_combout $end
$var wire 1 -! count[2]~33 $end
$var wire 1 .! count[3]~34_combout $end
$var wire 1 /! count[3]~35 $end
$var wire 1 0! count[4]~36_combout $end
$var wire 1 1! count[4]~37 $end
$var wire 1 2! count[5]~38_combout $end
$var wire 1 3! count[5]~39 $end
$var wire 1 4! count[6]~40_combout $end
$var wire 1 5! external~2_combout $end
$var wire 1 6! external~3_combout $end
$var wire 1 7! external~4_combout $end
$var wire 1 8! external~5_combout $end
$var wire 1 9! external~0_combout $end
$var wire 1 :! external~1_combout $end
$var wire 1 ;! external~6_combout $end
$var wire 1 <! external~q $end
$var wire 1 =! tx_en~q $end
$var wire 1 >! bps_start_r~0_combout $end
$var wire 1 ?! bps_start_r~q $end
$var wire 1 @! speed_select|cnt[0]~13_combout $end
$var wire 1 A! rst_n~input_o $end
$var wire 1 B! rst_n~inputclkctrl_outclk $end
$var wire 1 C! speed_select|Equal0~3_combout $end
$var wire 1 D! speed_select|cnt[6]~26 $end
$var wire 1 E! speed_select|cnt[7]~27_combout $end
$var wire 1 F! speed_select|cnt[7]~28 $end
$var wire 1 G! speed_select|cnt[8]~29_combout $end
$var wire 1 H! speed_select|cnt[8]~30 $end
$var wire 1 I! speed_select|cnt[9]~31_combout $end
$var wire 1 J! speed_select|cnt[9]~32 $end
$var wire 1 K! speed_select|cnt[10]~33_combout $end
$var wire 1 L! speed_select|cnt[10]~34 $end
$var wire 1 M! speed_select|cnt[11]~35_combout $end
$var wire 1 N! speed_select|cnt[11]~36 $end
$var wire 1 O! speed_select|cnt[12]~37_combout $end
$var wire 1 P! speed_select|Equal0~1_combout $end
$var wire 1 Q! speed_select|Equal0~0_combout $end
$var wire 1 R! speed_select|Equal0~2_combout $end
$var wire 1 S! speed_select|always0~0_combout $end
$var wire 1 T! speed_select|cnt[0]~14 $end
$var wire 1 U! speed_select|cnt[1]~15_combout $end
$var wire 1 V! speed_select|cnt[1]~16 $end
$var wire 1 W! speed_select|cnt[2]~17_combout $end
$var wire 1 X! speed_select|cnt[2]~18 $end
$var wire 1 Y! speed_select|cnt[3]~19_combout $end
$var wire 1 Z! speed_select|cnt[3]~20 $end
$var wire 1 [! speed_select|cnt[4]~21_combout $end
$var wire 1 \! speed_select|cnt[4]~22 $end
$var wire 1 ]! speed_select|cnt[5]~23_combout $end
$var wire 1 ^! speed_select|cnt[5]~24 $end
$var wire 1 _! speed_select|cnt[6]~25_combout $end
$var wire 1 `! speed_select|always1~0_combout $end
$var wire 1 a! speed_select|always1~1_combout $end
$var wire 1 b! speed_select|clk_bps_r~q $end
$var wire 1 c! comb_225|num[0]~4_combout $end
$var wire 1 d! comb_225|Add0~0_combout $end
$var wire 1 e! comb_225|num[2]~5_combout $end
$var wire 1 f! comb_225|num[3]~1_combout $end
$var wire 1 g! comb_225|num[3]~2_combout $end
$var wire 1 h! comb_225|num[1]~3_combout $end
$var wire 1 i! comb_225|Add0~1_combout $end
$var wire 1 j! comb_225|num[3]~6_combout $end
$var wire 1 k! comb_225|rs232_tx_r~3_combout $end
$var wire 1 l! comb_225|num[0]~0_combout $end
$var wire 1 m! comb_225|rs232_tx_r~4_combout $end
$var wire 1 n! data[2]~feeder_combout $end
$var wire 1 o! comb_225|rs232_tx_r~0_combout $end
$var wire 1 p! comb_225|rs232_tx_r~1_combout $end
$var wire 1 q! data[5]~feeder_combout $end
$var wire 1 r! data[4]~feeder_combout $end
$var wire 1 s! comb_225|Mux0~0_combout $end
$var wire 1 t! comb_225|Mux0~1_combout $end
$var wire 1 u! comb_225|rs232_tx_r~2_combout $end
$var wire 1 v! comb_225|rs232_tx_r~5_combout $end
$var wire 1 w! comb_225|rs232_tx_r~q $end
$var wire 1 x! data [7] $end
$var wire 1 y! data [6] $end
$var wire 1 z! data [5] $end
$var wire 1 {! data [4] $end
$var wire 1 |! data [3] $end
$var wire 1 }! data [2] $end
$var wire 1 ~! data [1] $end
$var wire 1 !" data [0] $end
$var wire 1 "" speed_select|cnt [12] $end
$var wire 1 #" speed_select|cnt [11] $end
$var wire 1 $" speed_select|cnt [10] $end
$var wire 1 %" speed_select|cnt [9] $end
$var wire 1 &" speed_select|cnt [8] $end
$var wire 1 '" speed_select|cnt [7] $end
$var wire 1 (" speed_select|cnt [6] $end
$var wire 1 )" speed_select|cnt [5] $end
$var wire 1 *" speed_select|cnt [4] $end
$var wire 1 +" speed_select|cnt [3] $end
$var wire 1 ," speed_select|cnt [2] $end
$var wire 1 -" speed_select|cnt [1] $end
$var wire 1 ." speed_select|cnt [0] $end
$var wire 1 /" genpll|altpll_component|auto_generated|wire_pll1_clk [4] $end
$var wire 1 0" genpll|altpll_component|auto_generated|wire_pll1_clk [3] $end
$var wire 1 1" genpll|altpll_component|auto_generated|wire_pll1_clk [2] $end
$var wire 1 2" genpll|altpll_component|auto_generated|wire_pll1_clk [1] $end
$var wire 1 3" genpll|altpll_component|auto_generated|wire_pll1_clk [0] $end
$var wire 1 4" count [27] $end
$var wire 1 5" count [26] $end
$var wire 1 6" count [25] $end
$var wire 1 7" count [24] $end
$var wire 1 8" count [23] $end
$var wire 1 9" count [22] $end
$var wire 1 :" count [21] $end
$var wire 1 ;" count [20] $end
$var wire 1 <" count [19] $end
$var wire 1 =" count [18] $end
$var wire 1 >" count [17] $end
$var wire 1 ?" count [16] $end
$var wire 1 @" count [15] $end
$var wire 1 A" count [14] $end
$var wire 1 B" count [13] $end
$var wire 1 C" count [12] $end
$var wire 1 D" count [11] $end
$var wire 1 E" count [10] $end
$var wire 1 F" count [9] $end
$var wire 1 G" count [8] $end
$var wire 1 H" count [7] $end
$var wire 1 I" count [6] $end
$var wire 1 J" count [5] $end
$var wire 1 K" count [4] $end
$var wire 1 L" count [3] $end
$var wire 1 M" count [2] $end
$var wire 1 N" count [1] $end
$var wire 1 O" count [0] $end
$var wire 1 P" comb_225|num [3] $end
$var wire 1 Q" comb_225|num [2] $end
$var wire 1 R" comb_225|num [1] $end
$var wire 1 S" comb_225|num [0] $end
$var wire 1 T" cnt [13] $end
$var wire 1 U" cnt [12] $end
$var wire 1 V" cnt [11] $end
$var wire 1 W" cnt [10] $end
$var wire 1 X" cnt [9] $end
$var wire 1 Y" cnt [8] $end
$var wire 1 Z" cnt [7] $end
$var wire 1 [" cnt [6] $end
$var wire 1 \" cnt [5] $end
$var wire 1 ]" cnt [4] $end
$var wire 1 ^" cnt [3] $end
$var wire 1 _" cnt [2] $end
$var wire 1 `" cnt [1] $end
$var wire 1 a" cnt [0] $end
$var wire 1 b" genpll|altpll_component|auto_generated|pll1_CLK_bus [4] $end
$var wire 1 c" genpll|altpll_component|auto_generated|pll1_CLK_bus [3] $end
$var wire 1 d" genpll|altpll_component|auto_generated|pll1_CLK_bus [2] $end
$var wire 1 e" genpll|altpll_component|auto_generated|pll1_CLK_bus [1] $end
$var wire 1 f" genpll|altpll_component|auto_generated|pll1_CLK_bus [0] $end
$upscope $end
$upscope $end
$enddefinitions $end
#0
$dumpvars
0!
1"
0#
1$
0%
x&
0'
1(
x)
1*
1+
1,
0-
x.
x/
10
01
02
13
04
05
06
17
08
09
0:
1;
0<
0=
0>
1?
0@
0A
0B
0C
0D
0E
1F
0G
0H
0I
1J
0K
0L
0M
0N
1O
0P
0Q
1R
0S
0T
1U
0V
0W
0X
1Y
0Z
0[
0\
1]
0^
0_
0`
1a
0b
0c
0d
1e
0f
0g
0h
1i
0j
0k
0l
1m
0n
0o
0p
1q
1r
1s
0t
1u
0v
0w
1x
0y
0z
0{
1|
0}
0~
0!!
1"!
1#!
1$!
1%!
1&!
1'!
1(!
0)!
0*!
1+!
0,!
0-!
0.!
1/!
00!
01!
02!
13!
04!
15!
16!
17!
18!
19!
1:!
1;!
0<!
0=!
0>!
0?!
1@!
1A!
1B!
0C!
0D!
0E!
1F!
0G!
0H!
0I!
1J!
0K!
0L!
0M!
1N!
0O!
1P!
0Q!
0R!
1S!
0T!
0U!
1V!
0W!
0X!
0Y!
1Z!
0[!
0\!
0]!
1^!
0_!
0`!
0a!
0b!
0c!
0d!
0e!
0f!
0g!
0h!
0i!
0j!
0k!
0l!
1m!
0n!
0o!
0p!
0q!
0r!
0s!
0t!
0u!
0v!
0w!
0!"
0~!
0}!
0|!
0{!
0z!
0y!
0x!
0."
0-"
0,"
0+"
0*"
0)"
0("
0'"
0&"
0%"
0$"
0#"
0""
x3"
x2"
x1"
x0"
x/"
0O"
0N"
0M"
0L"
0K"
0J"
0I"
0H"
0G"
0F"
0E"
0D"
0C"
0B"
0A"
0@"
0?"
0>"
0="
0<"
0;"
0:"
09"
08"
07"
06"
05"
04"
0S"
0R"
0Q"
0P"
0a"
0`"
0_"
0^"
0]"
0\"
0["
0Z"
0Y"
0X"
0W"
0V"
0U"
0T"
xf"
xe"
xd"
xc"
xb"
$end
#1000
1.
#5000
1!
0&
1-
1Q
1<!
1O"
1>!
1)!
0R
1*!
#10000
0!
1&
0-
0Q
#11000
0.
#15000
1!
0&
1-
1Q
1=!
1N"
0O"
1?!
0+!
0*!
0)!
1R
0S!
1#
1,!
1+!
1*!
0,!
#20000
0!
1&
0-
0Q
#21000
1.
#25000
1!
0&
1-
1Q
1."
1O"
1T!
0@!
1)!
0R
1U!
0+!
0*!
1,!
#30000
0!
1&
0-
0Q
#31000
0.
#35000
1!
0&
1-
1Q
1-"
0."
1M"
0N"
0O"
0V!
0U!
0T!
1@!
1-!
0,!
1+!
1*!
0)!
1R
1W!
1V!
1U!
1.!
0-!
1,!
0*!
0W!
0.!
#40000
0!
1&
0-
0Q
#41000
1.
#45000
1!
0&
1-
1Q
1."
1O"
1T!
0@!
1)!
0R
0V!
0U!
1*!
1W!
#50000
0!
1&
0-
0Q
#51000
0.
#55000
1!
0&
1-
1Q
1,"
0-"
0."
1N"
0O"
1X!
0W!
1V!
1U!
0T!
1@!
0+!
0*!
0)!
1R
1Y!
0X!
1W!
0U!
1-!
0,!
1+!
1*!
0Y!
1.!
0-!
1,!
0.!
#60000
0!
1&
0-
0Q
#61000
1.
#65000
1!
0&
1-
1Q
1."
1O"
1T!
0@!
1)!
0R
1U!
0+!
0*!
1-!
0,!
1.!
#70000
0!
1&
0-
0Q
#71000
0.
#75000
1!
0&
1-
1Q
1-"
0."
1L"
0M"
0N"
0O"
0V!
0U!
0T!
1@!
0/!
0.!
0-!
1,!
1+!
1*!
0)!
1R
1X!
0W!
1V!
1U!
10!
1/!
1.!
0,!
0*!
1Y!
0X!
1W!
00!
0Y!
#80000
0!
1&
0-
0Q
#81000
1.
#85000
1!
0&
1-
1Q
1."
1O"
1T!
0@!
1)!
0R
0V!
0U!
1*!
1X!
0W!
1Y!
#90000
0!
1&
0-
0Q
#91000
0.
#95000
1!
0&
1-
1Q
1+"
0,"
0-"
0."
1N"
0O"
1`!
0Z!
0Y!
0X!
1W!
1V!
1U!
0T!
1@!
0+!
0*!
0)!
1R
1[!
1Z!
1Y!
0W!
0U!
1,!
1+!
1*!
0[!
0,!
#100000
0!
1&
0-
0Q
#101000
1.
#105000
1!
0&
1-
1Q
1."
1O"
0`!
1T!
0@!
09!
1)!
0R
1U!
0:!
0+!
0*!
0;!
1,!
#110000
0!
1&
0-
0Q
#111000
0.
#115000
1!
0&
1-
1Q
1-"
0."
0<!
1M"
0N"
0O"
0V!
0U!
1`!
0T!
1@!
0>!
1-!
0,!
1+!
1*!
0)!
1R
1W!
1V!
1U!
0/!
0.!
0-!
1,!
0*!
0W!
10!
1/!
1.!
00!
#120000
0!
1&
0-
0Q
#121000
1.
#125000
1!
0&
1-
1Q
1."
0=!
1O"
0?!
0`!
1T!
0@!
1)!
0R
1S!
0#
0V!
0U!
1*!
1W!
#130000
0!
1&
0-
0Q
#131000
0.
#135000
1!
0&
1-
1Q
0+"
0-"
0."
1N"
0O"
0Y!
1V!
1U!
0T!
1@!
0+!
0*!
0)!
1R
0W!
0U!
1-!
0,!
1+!
1*!
0/!
0.!
0-!
1,!
10!
1/!
1.!
00!
#140000
0!
1&
0-
0Q
#141000
1.
#145000
1!
0&
1-
1Q
1O"
1)!
0R
0+!
0*!
1-!
0,!
0/!
0.!
10!
#150000
0!
1&
0-
0Q
#151000
0.
#155000
1!
0&
1-
1Q
1K"
0L"
0M"
0N"
0O"
11!
00!
19!
1/!
1.!
0-!
1,!
1+!
1*!
0)!
1R
12!
01!
10!
0.!
0,!
0*!
02!
#160000
0!
1&
0-
0Q
#161000
1.
#165000
1!
0&
1-
1Q
1O"
1)!
0R
1*!
#170000
0!
1&
0-
0Q
#171000
0.
#175000
1!
0&
1-
1Q
1N"
0O"
0+!
0*!
0)!
1R
1,!
1+!
1*!
0,!
#180000
0!
1&
0-
0Q
#181000
1.
#185000
1!
0&
1-
1Q
1O"
1)!
0R
0+!
0*!
1,!
#190000
0!
1&
0-
0Q
#191000
0.
#195000
1!
0&
1-
1Q
1M"
0N"
0O"
1-!
0,!
1+!
1*!
0)!
1R
1.!
0-!
1,!
0*!
0.!
#200000
0!
1&
0-
0Q
#201000
1.
#205000
1!
0&
1-
1Q
1O"
1)!
0R
1*!
#210000
0!
1&
0-
0Q
#211000
0.
#215000
1!
0&
1-
1Q
1N"
0O"
0+!
0*!
0)!
1R
1-!
0,!
1+!
1*!
1.!
0-!
1,!
0.!
#220000
0!
1&
0-
0Q
#221000
1.
#225000
1!
0&
1-
1Q
1O"
1)!
0R
0+!
0*!
1-!
0,!
1.!
#230000
0!
1&
0-
0Q
#231000
0.
#235000
1!
0&
1-
1Q
1L"
0M"
0N"
0O"
0/!
0.!
0-!
1,!
1+!
1*!
0)!
1R
11!
00!
1/!
1.!
0,!
0*!
12!
01!
10!
02!
#240000
0!
1&
0-
0Q
#241000
1.
#245000
1!
0&
1-
1Q
1O"
1)!
0R
1*!
#250000
0!
1&
0-
0Q
#251000
0.
#255000
1!
0&
1-
1Q
1N"
0O"
0+!
0*!
0)!
1R
1,!
1+!
1*!
0,!
#260000
0!
1&
0-
0Q
#261000
1.
#265000
1!
0&
1-
1Q
1O"
09!
1)!
0R
0+!
0*!
1,!
#270000
0!
1&
0-
0Q
#271000
0.
#275000
1!
0&
1-
1Q
1M"
0N"
0O"
1-!
0,!
1+!
1*!
0)!
1R
0/!
0.!
0-!
1,!
0*!
11!
00!
1/!
1.!
12!
01!
10!
02!
#280000
0!
1&
0-
0Q
#281000
1.
#285000
1!
0&
1-
1Q
1O"
1)!
0R
1*!
#290000
0!
1&
0-
0Q
#291000
0.
#295000
1!
0&
1-
1Q
1N"
0O"
0+!
0*!
0)!
1R
1-!
0,!
1+!
1*!
0/!
0.!
0-!
1,!
11!
00!
1/!
1.!
12!
01!
10!
02!
#300000
0!
1&
0-
0Q
#301000
1.
#305000
1!
0&
1-
1Q
1O"
1)!
0R
0+!
0*!
1-!
0,!
0/!
0.!
11!
00!
12!
#310000
0!
1&
0-
0Q
#311000
0.
#315000
1!
0&
1-
1Q
1J"
0K"
0L"
0M"
0N"
0O"
05!
03!
02!
01!
10!
19!
1/!
1.!
0-!
1,!
1+!
1*!
0)!
1R
08!
14!
13!
12!
1:!
00!
0.!
0,!
0*!
04!
#320000
0!
1&
0-
0Q
#321000
1.
#325000
1!
0&
1-
1Q
1O"
1)!
0R
1*!
#330000
0!
1&
0-
0Q
#331000
0.
#335000
1!
0&
1-
1Q
1N"
0O"
0+!
0*!
0)!
1R
1,!
1+!
1*!
0,!
#340000
0!
1&
0-
0Q
#341000
1.
#345000
1!
0&
1-
1Q
1O"
1)!
0R
0+!
0*!
1,!
#350000
0!
1&
0-
0Q
#351000
0.
#355000
1!
0&
1-
1Q
1M"
0N"
0O"
1-!
0,!
1+!
1*!
0)!
1R
1.!
0-!
1,!
0*!
0.!
#360000
0!
1&
0-
0Q
#361000
1.
#365000
1!
0&
1-
1Q
1O"
1)!
0R
1*!
#370000
0!
1&
0-
0Q
#371000
0.
#375000
1!
0&
1-
1Q
1N"
0O"
0+!
0*!
0)!
1R
1-!
0,!
1+!
1*!
1.!
0-!
1,!
0.!
#380000
0!
1&
0-
0Q
#381000
1.
#385000
1!
0&
1-
1Q
1O"
1)!
0R
0+!
0*!
1-!
0,!
1.!
#390000
0!
1&
0-
0Q
#391000
0.
#395000
1!
0&
1-
1Q
1L"
0M"
0N"
0O"
0/!
0.!
0-!
1,!
1+!
1*!
0)!
1R
10!
1/!
1.!
0,!
0*!
00!
#400000
0!
1&
0-
0Q
#401000
1.
#405000
1!
0&
1-
1Q
1O"
1)!
0R
1*!
#410000
0!
1&
0-
0Q
#411000
0.
#415000
1!
0&
1-
1Q
1N"
0O"
0+!
0*!
0)!
1R
1,!
1+!
1*!
0,!
#420000
0!
1&
0-
0Q
#421000
1.
#425000
1!
0&
1-
1Q
1O"
09!
1)!
0R
0:!
0+!
0*!
1,!
#430000
0!
1&
0-
0Q
#431000
0.
#435000
1!
0&
1-
1Q
1M"
0N"
0O"
1-!
0,!
1+!
1*!
0)!
1R
0/!
0.!
0-!
1,!
0*!
10!
1/!
1.!
00!
#440000
0!
1&
0-
0Q
#441000
1.
#445000
1!
0&
1-
1Q
1O"
1)!
0R
1*!
#450000
0!
1&
0-
0Q
#451000
0.
#455000
1!
0&
1-
1Q
1N"
0O"
0+!
0*!
0)!
1R
1-!
0,!
1+!
1*!
0/!
0.!
0-!
1,!
10!
1/!
1.!
00!
#460000
0!
1&
0-
0Q
#461000
1.
#465000
1!
0&
1-
1Q
1O"
1)!
0R
0+!
0*!
1-!
0,!
0/!
0.!
10!
#470000
0!
1&
0-
0Q
#471000
0.
#475000
1!
0&
1-
1Q
1K"
0L"
0M"
0N"
0O"
11!
00!
19!
1/!
1.!
0-!
1,!
1+!
1*!
0)!
1R
03!
02!
01!
10!
0.!
0,!
0*!
14!
13!
12!
04!
#480000
0!
1&
0-
0Q
#481000
1.
#485000
1!
0&
1-
1Q
1O"
1)!
0R
1*!
#490000
0!
1&
0-
0Q
#491000
0.
#495000
1!
0&
1-
1Q
1N"
0O"
0+!
0*!
0)!
1R
1,!
1+!
1*!
0,!
#500000
0!
1&
0-
0Q
#501000
1.
#505000
1!
0&
1-
1Q
1O"
1)!
0R
0+!
0*!
1,!
#510000
0!
1&
0-
0Q
#511000
0.
#515000
1!
0&
1-
1Q
1M"
0N"
0O"
1-!
0,!
1+!
1*!
0)!
1R
1.!
0-!
1,!
0*!
0.!
#520000
0!
1&
0-
0Q
#521000
1.
#525000
1!
0&
1-
1Q
1O"
1)!
0R
1*!
#530000
0!
1&
0-
0Q
#531000
0.
#535000
1!
0&
1-
1Q
1N"
0O"
0+!
0*!
0)!
1R
1-!
0,!
1+!
1*!
1.!
0-!
1,!
0.!
#540000
0!
1&
0-
0Q
#541000
1.
#545000
1!
0&
1-
1Q
1O"
1)!
0R
0+!
0*!
1-!
0,!
1.!
#550000
0!
1&
0-
0Q
#551000
0.
#555000
1!
0&
1-
1Q
1L"
0M"
0N"
0O"
0/!
0.!
0-!
1,!
1+!
1*!
0)!
1R
11!
00!
1/!
1.!
0,!
0*!
03!
02!
01!
10!
14!
13!
12!
04!
#560000
0!
1&
0-
0Q
#561000
1.
#565000
1!
0&
1-
1Q
1O"
1)!
0R
1*!
#570000
0!
1&
0-
0Q
#571000
0.
#575000
1!
0&
1-
1Q
1N"
0O"
0+!
0*!
0)!
1R
1,!
1+!
1*!
0,!
#580000
0!
1&
0-
0Q
#581000
1.
#585000
1!
0&
1-
1Q
1O"
09!
1)!
0R
0+!
0*!
1,!
#590000
0!
1&
0-
0Q
#591000
0.
#595000
1!
0&
1-
1Q
1M"
0N"
0O"
1-!
0,!
1+!
1*!
0)!
1R
0/!
0.!
0-!
1,!
0*!
11!
00!
1/!
1.!
03!
02!
01!
10!
14!
13!
12!
04!
#600000
0!
1&
0-
0Q
#601000
1.
#605000
1!
0&
1-
1Q
1O"
1)!
0R
1*!
#610000
0!
1&
0-
0Q
#611000
0.
#615000
1!
0&
1-
1Q
1N"
0O"
0+!
0*!
0)!
1R
1-!
0,!
1+!
1*!
0/!
0.!
0-!
1,!
11!
00!
1/!
1.!
03!
02!
01!
10!
14!
13!
12!
04!
#620000
0!
1&
0-
0Q
#621000
1.
#625000
1!
0&
1-
1Q
1O"
1)!
0R
0+!
0*!
1-!
0,!
0/!
0.!
11!
00!
03!
02!
14!
#630000
0!
1&
0-
0Q
#631000
0.
#635000
1!
0&
1-
1Q
1I"
0J"
0K"
0L"
0M"
0N"
0O"
1S
04!
13!
12!
01!
10!
19!
1/!
1.!
0-!
1,!
1+!
1*!
0)!
1R
1T
0S
14!
02!
1:!
00!
0.!
0,!
0*!
0T
#640000
0!
1&
0-
0Q
#641000
1.
#645000
1!
0&
1-
1Q
1O"
1)!
0R
1*!
#650000
0!
1&
0-
0Q
#651000
0.
#655000
1!
0&
1-
1Q
1N"
0O"
0+!
0*!
0)!
1R
1,!
1+!
1*!
0,!
#660000
0!
1&
0-
0Q
#661000
1.
#665000
1!
0&
1-
1Q
1O"
1)!
0R
0+!
0*!
1,!
#670000
0!
1&
0-
0Q
#671000
0.
#675000
1!
0&
1-
1Q
1M"
0N"
0O"
1-!
0,!
1+!
1*!
0)!
1R
1.!
0-!
1,!
0*!
0.!
#680000
0!
1&
0-
0Q
#681000
1.
#685000
1!
0&
1-
1Q
1O"
1)!
0R
1*!
#690000
0!
1&
0-
0Q
#691000
0.
#695000
1!
0&
1-
1Q
1N"
0O"
0+!
0*!
0)!
1R
1-!
0,!
1+!
1*!
1.!
0-!
1,!
0.!
#700000
0!
1&
0-
0Q
#701000
1.
#705000
1!
0&
1-
1Q
1O"
1)!
0R
0+!
0*!
1-!
0,!
1.!
#710000
0!
1&
0-
0Q
#711000
0.
#715000
1!
0&
1-
1Q
1L"
0M"
0N"
0O"
0/!
0.!
0-!
1,!
1+!
1*!
0)!
1R
10!
1/!
1.!
0,!
0*!
00!
#720000
0!
1&
0-
0Q
#721000
1.
#725000
1!
0&
1-
1Q
1O"
1)!
0R
1*!
#730000
0!
1&
0-
0Q
#731000
0.
#735000
1!
0&
1-
1Q
1N"
0O"
0+!
0*!
0)!
1R
1,!
1+!
1*!
0,!
#740000
0!
1&
0-
0Q
#741000
1.
#745000
1!
0&
1-
1Q
1O"
09!
1)!
0R
0:!
0+!
0*!
1,!
#750000
0!
1&
0-
0Q
#751000
0.
#755000
1!
0&
1-
1Q
1M"
0N"
0O"
1-!
0,!
1+!
1*!
0)!
1R
0/!
0.!
0-!
1,!
0*!
10!
1/!
1.!
00!
#760000
0!
1&
0-
0Q
#761000
1.
#765000
1!
0&
1-
1Q
1O"
1)!
0R
1*!
#770000
0!
1&
0-
0Q
#771000
0.
#775000
1!
0&
1-
1Q
1N"
0O"
0+!
0*!
0)!
1R
1-!
0,!
1+!
1*!
0/!
0.!
0-!
1,!
10!
1/!
1.!
00!
#780000
0!
1&
0-
0Q
#781000
1.
#785000
1!
0&
1-
1Q
1O"
1)!
0R
0+!
0*!
1-!
0,!
0/!
0.!
10!
#790000
0!
1&
0-
0Q
#791000
0.
#795000
1!
0&
1-
1Q
1K"
0L"
0M"
0N"
0O"
11!
00!
19!
1/!
1.!
0-!
1,!
1+!
1*!
0)!
1R
12!
01!
10!
0.!
0,!
0*!
02!
#800000
0!
1&
0-
0Q
#801000
1.
#805000
1!
0&
1-
1Q
1O"
1)!
0R
1*!
#810000
0!
1&
0-
0Q
#811000
0.
#815000
1!
0&
1-
1Q
1N"
0O"
0+!
0*!
0)!
1R
1,!
1+!
1*!
0,!
#820000
0!
1&
0-
0Q
#821000
1.
#825000
1!
0&
1-
1Q
1O"
1)!
0R
0+!
0*!
1,!
#830000
0!
1&
0-
0Q
#831000
0.
#835000
1!
0&
1-
1Q
1M"
0N"
0O"
1-!
0,!
1+!
1*!
0)!
1R
1.!
0-!
1,!
0*!
0.!
#840000
0!
1&
0-
0Q
#841000
1.
#845000
1!
0&
1-
1Q
1O"
1)!
0R
1*!
#850000
0!
1&
0-
0Q
#851000
0.
#855000
1!
0&
1-
1Q
1N"
0O"
0+!
0*!
0)!
1R
1-!
0,!
1+!
1*!
1.!
0-!
1,!
0.!
#860000
0!
1&
0-
0Q
#861000
1.
#865000
1!
0&
1-
1Q
1O"
1)!
0R
0+!
0*!
1-!
0,!
1.!
#870000
0!
1&
0-
0Q
#871000
0.
#875000
1!
0&
1-
1Q
1L"
0M"
0N"
0O"
0/!
0.!
0-!
1,!
1+!
1*!
0)!
1R
11!
00!
1/!
1.!
0,!
0*!
12!
01!
10!
02!
#880000
0!
1&
0-
0Q
#881000
1.
#885000
1!
0&
1-
1Q
1O"
1)!
0R
1*!
#890000
0!
1&
0-
0Q
#891000
0.
#895000
1!
0&
1-
1Q
1N"
0O"
0+!
0*!
0)!
1R
1,!
1+!
1*!
0,!
#900000
0!
1&
0-
0Q
#901000
1.
#905000
1!
0&
1-
1Q
1O"
09!
1)!
0R
0+!
0*!
1,!
#910000
0!
1&
0-
0Q
#911000
0.
#915000
1!
0&
1-
1Q
1M"
0N"
0O"
1-!
0,!
1+!
1*!
0)!
1R
0/!
0.!
0-!
1,!
0*!
11!
00!
1/!
1.!
12!
01!
10!
02!
#920000
0!
1&
0-
0Q
#921000
1.
#925000
1!
0&
1-
1Q
1O"
1)!
0R
1*!
